{
  "enchantment.minecraft.sharpness": "§5🗡",
  "enchantment.minecraft.smite": "§5🗡",
  "enchantment.minecraft.bane_of_arthropods": "§5🗡",
  "enchantment.minecraft.knockback": "§5🗡",
  "enchantment.minecraft.fire_aspect": "§5🗡",
  "enchantment.minecraft.sweeping": "§5🗡",
  "enchantment.minecraft.protection": "§b🛡",
  "enchantment.minecraft.fire_protection": "§b🛡",
  "enchantment.minecraft.feather_falling": "§b👟",
  "enchantment.minecraft.blast_protection": "§b🛡",
  "enchantment.minecraft.projectile_protection": "§b🛡",
  "enchantment.minecraft.respiration": "§b🧢",
  "enchantment.minecraft.aqua_affinity": "§b🧢",
  "enchantment.minecraft.depth_strider": "§b👟",
  "enchantment.minecraft.frost_walker": "§b👟",
  "enchantment.minecraft.soul_speed": "§b👟",
  "enchantment.minecraft.efficiency": "§3⛏",
  "enchantment.minecraft.silk_touch": "§3⛏",
  "enchantment.minecraft.unbreaking": "§a⭐",
  "enchantment.minecraft.looting": "§5🗡",
  "enchantment.minecraft.fortune": "§3⛏",
  "enchantment.minecraft.luck_of_the_sea": "§9🎣",
  "enchantment.minecraft.lure": "§9🎣",
  "enchantment.minecraft.power": "§6🏹",
  "enchantment.minecraft.flame": "§6🏹",
  "enchantment.minecraft.punch": "§6🏹",
  "enchantment.minecraft.infinity": "§6🏹",
  "enchantment.minecraft.thorns": "§b🛡",
  "enchantment.minecraft.mending": "§a⭐",
  "enchantment.minecraft.binding_curse": "☠",
  "enchantment.minecraft.vanishing_curse": "☠",
  "enchantment.minecraft.loyalty": "§d🔱",
  "enchantment.minecraft.impaling": "§d🔱",
  "enchantment.minecraft.riptide": "§d🔱",
  "enchantment.minecraft.channeling": "§d🔱",
  "enchantment.minecraft.multishot": "§6†",
  "enchantment.minecraft.quick_charge": "§6†",
  "enchantment.minecraft.piercing": "§6†"
}
